{
  "Version": "2012-10-17",
  "Statement": [
    {
            "Effect": "Allow",
            "Action": [
                "s3:ListAllMyBuckets",
                "s3:GetBucketLocation"
            ],
            "Resource": "*"
        },
        {
            "Effect": "Allow",
            "Action": "s3:*",
            "Resource": "*"
        },
        {
          "Action": [
            "autoscaling:Describe*",
            "cloudwatch:*",
            "logs:*",
            "sns:*"
          ],
          "Effect": "Allow",
          "Resource": "*"
        }
  ]
}